16 Facetado – ggplot2: Gráficos elegantes para análisis de datos (3e)
…
Las escalas libres también son útiles cuando queremos mostrar múltiples series de tiempo medidas en diferentes escalas. Para hacer esto, primero necesitamos cambiar de datos “anchos” a “largos”, apilando las variables separadas en una sola columna. A continuación se muestra un ejemplo de esto con la forma larga de los datos economics. 

economics_long
#> # A tibble: 2,870 × 4
#>   date       variable value  value01
#>   <date>     <chr>    <dbl>    <dbl>
#> 1 1967-07-01 pce       507. 0       
#> 2 1967-08-01 pce       510. 0.000265
#> 3 1967-09-01 pce       516. 0.000762
#> 4 1967-10-01 pce       512. 0.000471
#> 5 1967-11-01 pce       517. 0.000916
#> 6 1967-12-01 pce       525. 0.00157 
#> # ℹ 2,864 more rows
…
