2 Primeros pasos – ggplot2: Gráficos elegantes para análisis de datos (3e)
…
Cómo mostrar variables categóricas adicionales en un gráfico utilizando pequeños múltiplos creados mediante facetado, Sección 2.5.

Una variedad de geoms diferentes que puedes usar para crear diferentes tipos de gráficos, Sección 2.6.

Cómo modificar los ejes, Sección 2.7.

Cosas que puedes hacer con un objeto de trazado además de mostrarlo, como guardarlo en el disco, Sección 2.8.

2.2 Datos de economía de combustible

En este capítulo, usaremos principalmente un conjunto de datos incluido con ggplot2: mpg. Incluye información sobre la economía de combustible de modelos de automóviles populares en 1999 y 2008, recopilada por la Agencia de Protección Ambiental de EE. UU., http://fueleconomy.gov. Puede acceder a los datos cargando ggplot2: 

library(ggplot2)
mpg
#> # A tibble: 234 × 11
#>   manufacturer model displ  year   cyl trans      drv     cty   hwy fl    class 
#>   <chr>        <chr> <dbl> <int> <int> <chr>      <chr> <int> <int> <chr> <chr> 
#> 1 audi         a4      1.8  1999     4 auto(l5)   f        18    29 p     compa…
#> 2 audi         a4      1.8  1999     4 manual(m5) f        21    29 p     compa…
#> 3 audi         a4      2    2008     4 manual(m6) f        20    31 p     compa…
#> 4 audi         a4      2    2008     4 auto(av)   f        21    30 p     compa…
#> 5 audi         a4      2.8  1999     6 auto(l5)   f        16    26 p     compa…
#> 6 audi         a4      2.8  1999     6 manual(m5) f        18    26 p     compa…
#> # ℹ 228 more rows
…
