13 Construya una gráfica capa por capa – ggplot2: Gráficos elegantes para análisis de datos (3e)
…
Tus datos son muy importantes, por eso lo mejor es ser explícito al respecto.

Un único marco de datos también es más fácil de guardar que una multitud de vectores, lo que significa que es más fácil reproducir los resultados o enviar los datos a otra persona.

Impone una clara separación de preocupaciones: ggplot2 convierte los marcos de datos en visualizaciones. Otros paquetes pueden crear marcos de datos en el formato correcto.

No es necesario que los datos de cada capa sean los mismos y, a menudo, resulta útil combinar varios conjuntos de datos en un solo gráfico. Para ilustrar esa idea, generaremos dos nuevos conjuntos de datos relacionados con el conjunto de datos de mpg. Primero, ajustaremos un modelo loess y generaremos predicciones a partir de él. (Esto es lo que geom_smooth() hace detrás de escena)

mod <- loess(hwy ~ displ, data = mpg)
grid <- tibble(displ = seq(min(mpg$displ), max(mpg$displ), length = 50))
grid$hwy <- predict(mod, newdata = grid)

grid
#> # A tibble: 50 × 2
#>   displ   hwy
#>   <dbl> <dbl>
#> 1  1.6   33.1
#> 2  1.71  32.2
#> 3  1.82  31.3
#> 4  1.93  30.4
#> 5  2.04  29.6
#> 6  2.15  28.8
#> # ℹ 44 more rows
…
